2_filter_data
…
dict <- tibble(
  word = c(lgbtq_terms, parties_uk, parties_us),
  set = c(rep("lgbtq", length(lgbtq_terms)),
          rep("parties_uk", length(parties_uk)),
          rep("parties_us", length(parties_us)))
) |> 
  distinct(word, .keep_all = TRUE)
dict

# A tibble: 71 × 2
   word          set  
   <chr>         <chr>
 1 Homosexual    lgbtq
 2 Lesbian       lgbtq
 3 Gay           lgbtq
 4 Bisexual      lgbtq
 5 Transgender   lgbtq
 6 Queer         lgbtq
 7 Transsexual   lgbtq
 8 Hermaphrodite lgbtq
 9 Intersex      lgbtq
10 Two-Spirit    lgbtq
# ℹ 61 more rows
…
